[
    {
        "id":0,
        "task_text": "Найдите баланс вашей дебетовой карты. \nДля выполнения задания кликните на область, которую вы считаете верной.",
        "time_for_task": 5
    },{
        "id":1,
        "task_text": "Найдите, где можно пополнить Альфа-карту с преимуществами. \nДля выполнения задания кликните на область, которую вы считаете верной.",
        "time_for_task": 5
    },{
        "id":2,
        "task_text": "Ваш друг Филипп Пронь просит перевести ему 2000 рублей по номеру телефона. Найдите, где это можно сделать. \nДля выполнения задания кликните на область, которую Вы считаете верной.",
        "time_for_task": 5
    },{
        "id":3,
        "task_text": "Найдите информацию о курсе доллара на текущую дату. \nДля выполнения задания кликните на область, которую вы считаете верной.",
        "time_for_task": 5
    },{
        "id":4,
        "task_text": "Пополните счет своего мобильного телефона. \nДля выполнения задания кликните на область, которую вы считаете верной.",
        "time_for_task": 5
    },{
        "id":5,
        "task_text": "Покажите карты, связанные с текущим счетом на 72 567 Руб. \nДля выполнения задания кликните на область, которую вы считаете верной.",
        "time_for_task": 5
    },{
        "id":6,
        "task_text": "Найдите размер накопленного кешбека по Альфа-Карте с преимуществами. \nДля выполнения задания кликните на область, которую Вы считаете верной.",
        "time_for_task": 5
    },{
        "id":7,
        "task_text": "Покажите название вашей кредитной карты. \nДля выполнения задания кликните на область, которую вы считаете верной.",
        "time_for_task": 5
    },{
        "id":8,
        "task_text": "Найдите валютный счет в долларах. \nДля выполнения задания кликните на область, которую вы считаете верной.",
        "time_for_task": 5
    },{
        "id":9,
        "task_text": "Найдите доступный остаток  по зарплатному счету. \nДля выполнения задания кликните на область, которую вы считаете верной.",
        "time_for_task": 5
    },{
        "id":10,
        "task_text": "Покажите сумму, которую банк может предложить в виде кредита. \nДля выполнения задания кликните на область, которую вы считаете верной.",
        "time_for_task": 5
    },{
        "id":11,
        "task_text": "",
        "time_for_task": 5
    }
]